﻿-Add server info: online | locked | Maintenance
		
-order by Rank and days
-and autosort by days when activity is clicked


-add play statistic over last 30 days

-create an array of elements in an xml
like:

<?xml version='1.0'?>
<config>
    <report>
        <name>Adjustment Report</name>
        <extension>pdf</extension>
        <filetype>adobe_pdf</Filetype>
        <field name="total" type="currency" />
        <field name="adjust" type="currency" />
        <field name="monthly" type="currency" />
        <output>
            <format>Excel</format>
            <AutoFormat>True</AutoFormat>
        </output>
        <reportstart>adjustment report</reportstart>
        <reportend></reportend>
        <linebegins>
            <regex>(?&lt;ssn&gt;\d{3}-\d{2}-\d{4})</Regex>
        </linebegins>
        <regex>"(?&lt;last&gt;\s{0,1}[A-Z-'.]+\s{0,1}[A-Z-'.]+),(?&lt;first&gt;\s[A-Z-'.]+\s{0,1})(?&lt;middle&gt;[A-Z][.]|\s{0,1})"></Regex>
        <regex>"(?&lt;ssn&gt;\d{3}-\d{2}-\d{4})"</Regex>
        <regex>"(?&lt;total&gt;\$[,/d]+)(?&lt;adjust&gt;\$[,/d]+)(?&lt;monthly&gt;\$[,/d]+)"</Regex>
    </report>
</config>




var reports = from report in xml.Descendants("report")
    where report.Element("name").Value.Contains("Adjustment Report")
    select new {
        Name = report.Element("name").Value,
        Extension = report.Element("extension").Value,
        FileType = report.Element("filetype").Value,
        Fields = report.Elements("field")
            .Select(f => new {
                Name = f.Attribute("name").Value, 
                Type = f.Attribute("type").Value 
            }).ToArray()
    };



add Manage Outfit Members on www.outfit418.com(only visible to officers)


read members from soe to populate the list
adding Medals and Achievements to members stored in a sql database



Score per minute

Score all-time   16307404
minutesplayed     73265






Bugs---



